@relation horse-colic

@attribute surgery {yes,no}
@attribute Age {adult,young}
@attribute rectal_temperature numeric
@attribute pulse numeric
@attribute respiratory_rate numeric
@attribute temp_extremities {normal,warm,cool,cold}
@attribute peripheral_pulse {normal,increased,reduced,absent}
@attribute mucous_membranes {normal_pink,bright_pink,pale_pink,pale_cyanotic,bright_red,dark_cyanotic}
@attribute capillary_refill_time {<3,>=3,meaning_unknown}
@attribute pain {alert_no_pain,depressed,intermittent_mild_pain,intermittent_severe_pain,continuous_severe_pain}
@attribute peristalsis {hypermotile,normal,hypomotile,absent}
@attribute abdominal_distension {none,slight,moderate,severe}
@attribute nasogastric_tube {none,slight,significant}
@attribute nasogastric_reflux {none,>1l,<1l}
@attribute nasogastric_reflux_PH numeric
@attribute rectal_examination {normal,increased,decreased,absent}
@attribute abdomen {normal,other,firm_feces_in_large_intestine,distended_small_intestine,distended_large_intestine}
@attribute packed_cell_volume numeric
@attribute total_protein numeric
@attribute abdominocentesis_appearance {clear,cloudy,serosanguinous}
@attribute abdomcentesis_total_protein numeric
@attribute outcome {lived,died,euthanized}
@attribute surgical_lesion {yes,no}

@data
no,young,38.3,90,?,normal,?,normal_pink,<3,continuous_severe_pain,hypomotile,none,slight,none,?,decreased,?,40,6.2,clear,2.2,lived,no
no,adult,38,44,12,cool,normal,normal_pink,?,?,hypermotile,slight,?,?,?,normal,?,42,64,?,?,lived,no
yes,adult,38,76,18,?,?,?,>=3,?,?,?,?,?,?,?,?,71,11,?,?,lived,yes
yes,adult,38.2,76,?,warm,reduced,bright_pink,<3,continuous_severe_pain,hypomotile,moderate,none,>1l,6,normal,distended_large_intestine,35,6.5,cloudy,0.9,lived,yes
yes,adult,37.3,48,12,normal,?,pale_pink,<3,intermittent_mild_pain,hypermotile,moderate,slight,none,?,decreased,firm_feces_in_large_intestine,40,6.6,cloudy,?,lived,yes
yes,adult,?,78,24,cool,reduced,pale_pink,<3,?,hypomotile,?,slight,none,?,?,distended_small_intestine,43,62,?,2,euthanized,no
yes,adult,39.4,54,66,normal,normal,bright_pink,<3,depressed,hypomotile,slight,none,none,?,decreased,distended_small_intestine,39,6,cloudy,?,lived,yes
yes,adult,36.4,98,35,cool,reduced,pale_cyanotic,<3,intermittent_severe_pain,hypomotile,slight,?,?,?,absent,distended_small_intestine,47,6.4,serosanguinous,3.6,died,yes
yes,adult,37.8,48,12,cool,normal,normal_pink,<3,?,hypomotile,slight,none,none,?,normal,firm_feces_in_large_intestine,37,5.5,cloudy,1.3,lived,no
yes,adult,38.5,86,?,normal,normal,pale_pink,<3,intermittent_severe_pain,absent,moderate,slight,none,?,decreased,distended_large_intestine,45,7.4,clear,3.4,died,yes
no,adult,37.5,48,16,normal,normal,normal_pink,<3,alert_no_pain,hypermotile,none,none,none,?,normal,?,37,6.5,?,?,lived,no
yes,young,39.1,164,84,cold,normal,dark_cyanotic,>=3,depressed,absent,severe,none,>1l,5,decreased,?,48,7.2,serosanguinous,5.3,died,yes
yes,adult,38.1,84,44,cold,?,pale_cyanotic,>=3,continuous_severe_pain,hypomotile,none,none,<1l,5,?,distended_small_intestine,60,6.8,?,5.7,died,yes
no,adult,?,?,?,?,?,?,?,?,?,?,?,?,?,?,?,?,?,?,?,lived,no
yes,adult,?,52,28,cool,reduced,pale_cyanotic,<3,intermittent_mild_pain,absent,moderate,slight,none,?,absent,distended_small_intestine,37,8.1,?,?,lived,yes
no,adult,39,86,16,cool,reduced,bright_red,?,intermittent_mild_pain,hypomotile,moderate,?,>1l,?,?,?,68,5.8,serosanguinous,6,died,yes
yes,adult,37.4,84,20,?,?,pale_pink,<3,depressed,hypomotile,moderate,?,?,?,?,?,31,61,?,1,euthanized,no
no,adult,38,42,40,cool,normal,normal_pink,<3,intermittent_mild_pain,hypomotile,none,?,?,?,?,?,?,?,?,?,lived,no
no,adult,36,100,20,cold,reduced,dark_cyanotic,>=3,depressed,absent,moderate,none,none,?,absent,distended_large_intestine,74,5.7,cloudy,2.5,euthanized,yes
no,adult,?,?,12,normal,normal,bright_pink,<3,depressed,hypermotile,slight,significant,none,?,normal,firm_feces_in_large_intestine,44,7.5,cloudy,?,lived,no
yes,adult,37.8,88,80,cool,reduced,bright_red,>=3,?,hypomotile,moderate,slight,<1l,?,absent,distended_large_intestine,64,89,?,?,euthanized,yes
yes,adult,38,86,24,cold,reduced,pale_cyanotic,<3,depressed,absent,severe,none,none,?,absent,distended_large_intestine,45,5.5,clear,10.1,died,yes
yes,adult,38.7,?,?,cool,normal,pale_pink,<3,continuous_severe_pain,absent,slight,?,?,?,?,?,33,6.5,cloudy,?,lived,yes
yes,adult,?,82,72,cool,normal,pale_cyanotic,<3,depressed,hypomotile,moderate,?,<1l,?,absent,distended_small_intestine,53,65,serosanguinous,2,euthanized,yes
yes,adult,38.3,44,21,cool,normal,bright_pink,<3,intermittent_mild_pain,hypomotile,moderate,slight,none,?,normal,distended_large_intestine,44,6.5,cloudy,4.4,lived,yes
no,young,39,150,72,?,?,?,?,?,?,?,?,?,?,?,?,47,8.5,?,0.1,lived,yes
no,adult,37.7,96,30,cool,reduced,pale_cyanotic,>=3,continuous_severe_pain,absent,severe,significant,>1l,4,absent,distended_large_intestine,66,7.5,?,?,died,yes
no,adult,38.5,60,20,normal,normal,bright_red,>=3,depressed,normal,none,slight,none,?,increased,firm_feces_in_large_intestine,63,7.5,cloudy,2.3,euthanized,no
yes,young,38.5,120,70,?,?,?,?,?,hypermotile,?,slight,?,?,normal,?,35,54,clear,1,lived,yes
no,adult,38,48,12,normal,normal,normal_pink,<3,alert_no_pain,hypomotile,?,none,none,?,decreased,other,42,6.3,cloudy,4.1,lived,no
no,adult,40,78,?,cool,reduced,bright_red,<3,depressed,hypomotile,none,none,none,?,absent,normal,66,6.5,?,?,died,yes
no,adult,37.7,40,18,normal,normal,normal_pink,?,intermittent_mild_pain,normal,none,none,none,?,decreased,firm_feces_in_large_intestine,36,3.5,?,?,lived,no
yes,adult,37.1,40,8,?,normal,pale_cyanotic,<3,intermittent_mild_pain,hypomotile,none,none,none,?,decreased,firm_feces_in_large_intestine,23,6.7,serosanguinous,?,lived,yes
yes,adult,37.3,48,20,?,normal,bright_pink,<3,intermittent_mild_pain,hypomotile,moderate,slight,none,?,decreased,distended_large_intestine,41,69,?,?,lived,yes
yes,adult,37.7,55,28,warm,normal,bright_pink,<3,depressed,hypomotile,moderate,?,<1l,5,absent,distended_large_intestine,?,?,?,?,lived,yes
yes,adult,?,80,?,cool,reduced,pale_pink,<3,intermittent_severe_pain,absent,severe,?,?,?,absent,distended_large_intestine,43,70,?,?,lived,yes
yes,adult,38.7,60,32,cold,reduced,bright_pink,>=3,intermittent_severe_pain,absent,severe,?,?,?,absent,distended_large_intestine,53,64,serosanguinous,2,euthanized,yes
no,adult,37.5,44,10,cool,normal,normal_pink,<3,intermittent_mild_pain,hypermotile,slight,slight,?,?,decreased,firm_feces_in_large_intestine,43,51,clear,1,lived,no
yes,adult,?,?,?,?,?,?,?,intermittent_severe_pain,?,?,none,none,?,?,distended_large_intestine,35,58,cloudy,1,lived,yes
no,adult,38.6,46,?,normal,normal,bright_pink,<3,alert_no_pain,hypomotile,slight,none,none,?,?,other,49,9.1,clear,1.6,lived,no
no,adult,37.6,48,20,cool,normal,pale_cyanotic,<3,alert_no_pain,hypermotile,moderate,slight,none,?,normal,normal,37,5.5,?,?,euthanized,yes
yes,adult,38,66,20,normal,reduced,pale_pink,<3,continuous_severe_pain,hypomotile,none,none,none,?,decreased,?,46,46,serosanguinous,2,euthanized,yes
no,adult,38.6,40,20,?,?,?,<3,?,?,?,?,?,?,?,?,41,6.4,?,?,lived,no
no,adult,37.3,104,35,?,?,dark_cyanotic,>=3,?,?,?,?,?,?,?,?,74,7.4,?,?,died,no
no,adult,40.3,114,36,cool,reduced,normal_pink,>=3,depressed,hypomotile,moderate,slight,none,7,normal,distended_large_intestine,57,8.1,serosanguinous,4.5,euthanized,yes
yes,adult,37.1,60,20,warm,?,pale_cyanotic,<3,intermittent_mild_pain,?,moderate,?,>1l,5,decreased,distended_small_intestine,64,8.5,cloudy,?,lived,yes
no,adult,37.7,48,?,warm,normal,normal_pink,<3,alert_no_pain,hypermotile,none,none,none,?,?,?,45,76,?,?,lived,no
yes,adult,?,?,?,?,?,?,?,?,?,?,?,?,?,?,?,?,?,?,?,lived,yes
no,adult,38.3,112,16,?,reduced,bright_red,>=3,?,?,none,none,>1l,?,?,distended_large_intestine,51,6,cloudy,1,euthanized,no
yes,adult,37.4,84,36,normal,?,pale_pink,>=3,intermittent_mild_pain,hypomotile,slight,?,?,?,absent,distended_large_intestine,?,?,serosanguinous,?,died,yes
yes,adult,38.2,60,?,normal,?,pale_pink,<3,depressed,hypermotile,none,none,none,?,absent,distended_small_intestine,43,6.2,cloudy,3.9,lived,yes
yes,adult,38.7,96,28,cool,reduced,pale_cyanotic,<3,?,absent,?,?,<1l,7.5,?,?,64,9,?,?,died,yes
no,adult,38,72,36,normal,normal,pale_pink,<3,intermittent_mild_pain,?,slight,slight,none,?,decreased,distended_large_intestine,38,6.8,cloudy,2,lived,no
no,adult,38.7,48,24,?,?,?,?,alert_no_pain,hypermotile,?,none,none,?,normal,?,34,63,?,?,lived,no
yes,young,38.1,136,48,cool,reduced,pale_pink,<3,continuous_severe_pain,hypermotile,moderate,slight,>1l,4.4,increased,?,33,4.9,cloudy,2.9,died,yes
no,adult,40.3,114,36,cool,reduced,normal_pink,>=3,depressed,hypomotile,moderate,slight,none,7,normal,distended_large_intestine,57,8.1,serosanguinous,4.5,died,yes
yes,adult,38.1,72,30,cool,reduced,pale_pink,<3,intermittent_severe_pain,absent,moderate,slight,none,?,decreased,distended_large_intestine,37,56,serosanguinous,1,lived,yes
yes,adult,38.4,92,20,normal,?,?,>=3,?,hypomotile,moderate,?,?,?,normal,?,?,?,?,?,lived,yes
no,adult,38.6,45,16,warm,normal,bright_pink,<3,alert_no_pain,hypermotile,?,?,?,?,normal,normal,43,58,?,?,lived,no
no,adult,38,60,32,normal,normal,?,<3,intermittent_mild_pain,hypomotile,?,none,none,?,?,?,50,7,clear,1,lived,no
yes,adult,37.7,44,28,?,absent,pale_pink,>=3,continuous_severe_pain,absent,severe,none,none,?,decreased,distended_large_intestine,45,70,serosanguinous,2,lived,yes
yes,adult,37.9,48,16,normal,normal,normal_pink,<3,intermittent_mild_pain,hypomotile,moderate,none,none,?,decreased,distended_large_intestine,37,7,?,?,lived,yes
no,adult,?,80,36,cool,absent,pale_pink,<3,intermittent_severe_pain,absent,severe,slight,none,?,decreased,distended_large_intestine,38,6.2,?,?,euthanized,yes
yes,adult,35.4,140,24,cool,reduced,pale_cyanotic,>=3,intermittent_severe_pain,absent,?,slight,none,?,?,distended_large_intestine,57,69,serosanguinous,2,euthanized,yes
yes,adult,38,60,12,normal,normal,bright_pink,<3,depressed,hypermotile,none,none,none,?,normal,distended_small_intestine,44,65,serosanguinous,2,euthanized,yes
yes,adult,37.3,90,40,cool,?,dark_cyanotic,>=3,continuous_severe_pain,absent,moderate,slight,>1l,?,normal,distended_large_intestine,65,50,serosanguinous,2,euthanized,yes
yes,adult,37.9,120,60,cool,reduced,pale_pink,<3,continuous_severe_pain,absent,severe,slight,>1l,7.5,absent,distended_large_intestine,52,6.6,serosanguinous,1.8,died,yes
no,adult,38.2,48,?,warm,?,normal_pink,>=3,intermittent_mild_pain,hypomotile,none,slight,none,?,?,other,34,6.6,?,?,lived,no
no,adult,38.4,80,60,cool,increased,bright_pink,<3,intermittent_mild_pain,normal,none,slight,>1l,?,normal,normal,54,6.9,?,?,lived,no
yes,adult,37.8,72,?,?,reduced,?,<3,continuous_severe_pain,hypomotile,none,?,none,?,normal,normal,56,80,clear,2,lived,yes
no,adult,37.2,72,24,cool,increased,pale_cyanotic,>=3,intermittent_severe_pain,hypomotile,moderate,significant,none,?,absent,distended_small_intestine,44,?,serosanguinous,3.3,euthanized,yes
yes,young,38.2,124,88,normal,reduced,bright_pink,<3,depressed,hypomotile,severe,?,?,?,?,?,47,8,clear,?,lived,yes
no,adult,37.7,44,40,warm,normal,pale_pink,<3,alert_no_pain,hypomotile,slight,none,none,?,normal,distended_large_intestine,41,60,?,?,lived,no
yes,adult,40.8,72,42,cool,reduced,normal_pink,<3,depressed,hypomotile,none,slight,none,?,?,?,54,7.4,serosanguinous,?,died,yes
yes,adult,38.1,88,24,cool,reduced,pale_cyanotic,<3,continuous_severe_pain,absent,moderate,slight,none,?,decreased,distended_small_intestine,41,4.6,?,?,died,yes
no,adult,?,?,40,cool,normal,normal_pink,<3,intermittent_mild_pain,hypomotile,slight,?,?,?,?,?,45,70,?,?,lived,no
no,adult,39.1,72,52,warm,?,bright_pink,<3,depressed,hypermotile,slight,none,none,?,absent,distended_small_intestine,50,7.8,?,?,lived,yes
no,adult,39.5,92,28,cool,reduced,dark_cyanotic,<3,continuous_severe_pain,absent,none,?,<1l,?,absent,?,72,6.4,?,3.6,died,no
yes,adult,?,48,96,normal,normal,pale_pink,<3,?,absent,none,slight,none,?,normal,distended_small_intestine,42,8,clear,?,lived,yes
no,adult,38,60,12,cool,normal,pale_pink,<3,intermittent_mild_pain,hypomotile,none,none,none,?,increased,other,47,7,?,?,lived,no
yes,adult,37,44,12,cool,normal,normal_pink,>=3,alert_no_pain,hypermotile,none,?,?,?,absent,other,40,6.7,serosanguinous,8,lived,yes
no,adult,?,80,32,cool,reduced,bright_pink,<3,depressed,hypomotile,moderate,slight,none,?,decreased,?,50,80,?,?,lived,yes
yes,adult,37.1,75,36,?,?,pale_pink,>=3,intermittent_severe_pain,absent,slight,slight,<1l,5,absent,distended_small_intestine,48,7.4,serosanguinous,3.2,died,yes
no,adult,39.5,60,10,cool,?,?,>=3,intermittent_mild_pain,hypomotile,slight,slight,none,?,decreased,?,38,56,clear,?,lived,no
no,adult,?,44,24,normal,normal,normal_pink,<3,intermittent_mild_pain,hypomotile,none,slight,none,?,?,normal,?,6.3,?,?,lived,no
no,adult,38.7,40,28,warm,normal,normal_pink,<3,intermittent_mild_pain,hypermotile,none,?,?,?,normal,?,39,62,clear,1,lived,no
yes,young,38.8,150,50,normal,reduced,dark_cyanotic,>=3,continuous_severe_pain,hypomotile,slight,none,none,?,?,?,50,6.2,?,?,died,yes
no,adult,37.5,40,32,cool,normal,pale_pink,<3,intermittent_mild_pain,normal,moderate,slight,none,?,?,distended_large_intestine,32,6.4,clear,1.1,lived,yes
yes,adult,38.5,120,60,cold,reduced,dark_cyanotic,>=3,?,hypomotile,?,?,?,?,?,?,54,?,?,?,lived,yes
yes,young,38.8,184,84,normal,?,normal_pink,<3,intermittent_severe_pain,hypermotile,moderate,?,?,?,increased,?,33,3.3,?,?,died,yes
no,adult,38.5,66,28,cool,reduced,?,>=3,continuous_severe_pain,absent,severe,?,?,?,decreased,distended_large_intestine,45,8.4,?,?,died,no
no,adult,38.5,54,?,normal,normal,normal_pink,<3,intermittent_mild_pain,hypermotile,none,slight,none,?,normal,?,40,6.8,cloudy,7,lived,no
yes,adult,38.4,44,24,cool,?,pale_cyanotic,?,continuous_severe_pain,absent,moderate,slight,none,?,absent,distended_large_intestine,50,77,?,?,lived,yes
yes,adult,38.5,30,18,?,?,?,?,?,?,?,?,?,?,?,?,40,7.7,?,?,lived,yes
yes,adult,39,120,?,cold,reduced,bright_red,>=3,depressed,absent,moderate,slight,<1l,8,?,?,65,8.2,serosanguinous,4.6,lived,no
yes,adult,?,88,?,cool,reduced,dark_cyanotic,>=3,continuous_severe_pain,hypomotile,moderate,none,<1l,?,absent,distended_large_intestine,63,6.5,serosanguinous,?,died,yes
yes,adult,37.2,42,12,warm,normal,normal_pink,<3,intermittent_mild_pain,hypomotile,moderate,significant,none,?,absent,distended_large_intestine,?,7,?,?,lived,no
no,adult,37.8,48,12,warm,normal,bright_pink,<3,intermittent_mild_pain,?,none,slight,?,?,increased,?,48,7.3,clear,?,lived,no
yes,adult,38.3,40,18,normal,normal,normal_pink,<3,intermittent_mild_pain,hypermotile,none,?,?,?,increased,normal,43,5.9,clear,?,lived,no
no,adult,?,?,?,cool,absent,dark_cyanotic,?,intermittent_severe_pain,?,severe,?,?,?,?,?,?,?,?,?,died,yes
yes,adult,38.2,48,18,normal,normal,normal_pink,<3,intermittent_mild_pain,hypomotile,moderate,none,>1l,?,absent,?,48,74,clear,2,lived,yes
no,adult,38,42,12,cool,?,pale_pink,<3,alert_no_pain,hypermotile,none,?,?,?,?,normal,37,5.8,?,?,lived,no
yes,young,38.9,120,30,normal,reduced,bright_pink,>=3,intermittent_mild_pain,hypomotile,moderate,significant,none,3,?,?,47,6.3,clear,?,lived,no
no,adult,38.3,88,?,?,?,dark_cyanotic,?,?,?,?,?,?,?,?,?,?,?,?,?,died,no
yes,adult,38.3,66,30,warm,reduced,normal_pink,<3,depressed,absent,moderate,significant,>1l,8.5,absent,distended_large_intestine,37,6,?,?,lived,yes
no,adult,38.6,56,32,warm,normal,normal_pink,<3,alert_no_pain,hypermotile,none,slight,?,?,increased,?,40,7,cloudy,2.1,lived,no
no,adult,38.2,60,24,cool,normal,pale_pink,>=3,intermittent_mild_pain,hypomotile,slight,significant,<1l,?,absent,distended_small_intestine,53,7.5,cloudy,1.4,lived,no
yes,adult,38,50,36,?,normal,normal_pink,<3,intermittent_mild_pain,normal,slight,?,?,?,decreased,?,39,6.6,clear,5.3,lived,yes
yes,adult,38.5,129,48,cool,reduced,pale_pink,<3,depressed,absent,moderate,none,<1l,2,?,?,57,66,serosanguinous,2,lived,yes
yes,adult,38.7,34,30,warm,?,pale_pink,<3,depressed,hypomotile,?,?,?,?,?,?,33,69,?,2,euthanized,yes
yes,adult,?,60,40,cool,?,normal_pink,<3,?,absent,?,significant,>1l,?,?,distended_large_intestine,42,72,?,?,lived,yes
yes,adult,37.5,96,18,normal,reduced,dark_cyanotic,>=3,intermittent_mild_pain,absent,slight,slight,<1l,5,?,distended_small_intestine,69,8.9,serosanguinous,?,lived,yes
no,adult,38,44,12,warm,normal,pale_pink,<3,intermittent_mild_pain,absent,moderate,none,>1l,6.5,normal,distended_small_intestine,33,6.5,?,?,died,yes
no,adult,37.3,50,32,normal,normal,pale_pink,<3,alert_no_pain,hypomotile,slight,?,?,?,normal,?,44,7,?,?,lived,no
no,adult,39,64,40,normal,normal,bright_red,<3,intermittent_mild_pain,hypomotile,slight,slight,none,?,decreased,firm_feces_in_large_intestine,42,7.5,cloudy,2.3,lived,no
yes,adult,36.5,78,30,normal,?,normal_pink,<3,continuous_severe_pain,hypomotile,none,?,none,?,?,?,34,75,cloudy,1,lived,yes
yes,adult,38.5,66,24,normal,normal,normal_pink,<3,intermittent_mild_pain,hypomotile,none,slight,none,?,absent,distended_large_intestine,40,6.7,clear,?,lived,yes
yes,adult,37.8,30,12,?,?,?,?,?,?,?,?,?,?,?,?,?,?,?,?,died,yes
yes,adult,37.3,40,?,?,reduced,normal_pink,<3,depressed,hypomotile,slight,significant,none,?,decreased,distended_large_intestine,36,?,serosanguinous,2,lived,yes
yes,adult,38.7,76,?,normal,normal,bright_red,>=3,intermittent_mild_pain,hypomotile,slight,slight,>1l,?,absent,distended_small_intestine,50,8,?,?,lived,yes
no,adult,37.4,54,18,cool,?,normal_pink,<3,intermittent_mild_pain,absent,moderate,slight,>1l,?,absent,distended_large_intestine,30,7.1,cloudy,?,lived,yes
no,young,?,150,60,cold,absent,pale_cyanotic,>=3,continuous_severe_pain,absent,severe,?,?,?,?,?,?,?,?,?,died,yes
no,adult,37.9,45,36,cool,reduced,pale_pink,>=3,depressed,hypomotile,none,slight,none,?,decreased,?,33,5.7,serosanguinous,?,lived,yes
yes,adult,39.1,60,10,?,normal,normal_pink,?,depressed,hypomotile,?,?,?,?,absent,distended_small_intestine,?,?,?,?,lived,yes
yes,adult,38.3,40,16,cool,?,?,<3,alert_no_pain,hypomotile,slight,?,?,?,?,?,38,58,clear,2,lived,yes
no,adult,38.5,96,36,cool,reduced,?,>=3,depressed,absent,slight,none,>1l,?,absent,distended_large_intestine,70,8.5,?,?,died,yes
no,adult,38.3,54,18,cool,normal,bright_pink,<3,depressed,hypomotile,slight,?,<1l,5.4,?,distended_small_intestine,44,7.2,serosanguinous,?,lived,no
no,adult,38.4,52,20,warm,normal,pale_pink,<3,alert_no_pain,hypomotile,slight,slight,none,?,decreased,distended_large_intestine,41,63,clear,1,lived,no
yes,adult,38,42,68,cold,normal,normal_pink,<3,intermittent_mild_pain,hypomotile,slight,slight,>1l,?,absent,distended_small_intestine,41,7.6,?,?,lived,yes
yes,adult,37,66,20,normal,reduced,bright_pink,<3,intermittent_severe_pain,hypomotile,moderate,none,?,?,normal,distended_large_intestine,35,6.9,cloudy,?,died,yes
no,adult,38.2,42,26,normal,normal,normal_pink,<3,intermittent_mild_pain,hypermotile,slight,?,?,?,normal,?,36,6.9,?,?,lived,no
no,adult,37.9,54,42,warm,normal,bright_red,<3,intermittent_mild_pain,hypermotile,none,?,none,?,?,other,47,54,serosanguinous,1,lived,no
yes,adult,37.7,66,12,normal,normal,pale_pink,<3,intermittent_mild_pain,hypomotile,slight,slight,?,?,absent,distended_small_intestine,31.5,6.2,cloudy,1.6,lived,yes
no,adult,38.4,48,16,warm,normal,normal_pink,<3,alert_no_pain,?,slight,slight,none,?,?,other,39,6.5,?,?,lived,no
yes,adult,37.5,72,?,warm,normal,normal_pink,<3,depressed,hypermotile,none,none,none,?,normal,?,35,65,cloudy,2,euthanized,yes
no,adult,37.8,56,16,normal,normal,bright_pink,<3,depressed,hypermotile,none,slight,none,?,normal,?,44,68,clear,1,lived,no
yes,adult,?,36,32,normal,normal,pale_cyanotic,<3,continuous_severe_pain,hypomotile,moderate,slight,<1l,4,?,distended_small_intestine,41,5.9,?,?,died,yes
no,adult,38.2,68,32,warm,increased,bright_pink,<3,alert_no_pain,hypermotile,none,significant,none,?,normal,normal,43,65,?,?,lived,no
no,adult,?,52,16,normal,?,pale_pink,<3,?,?,?,slight,<1l,5.5,?,?,55,7.2,?,?,lived,no
yes,adult,38.4,49,?,?,?,normal_pink,<3,?,?,none,slight,none,?,?,?,44,7.6,?,?,lived,yes
yes,adult,39.4,120,48,?,?,bright_red,<3,?,hypomotile,moderate,none,?,?,absent,?,56,64,clear,2,euthanized,no
yes,adult,38.3,80,?,cool,reduced,pale_cyanotic,>=3,continuous_severe_pain,absent,moderate,slight,none,?,absent,distended_small_intestine,45,7.5,cloudy,4.6,lived,yes
no,adult,37.5,44,?,normal,normal,normal_pink,<3,intermittent_mild_pain,hypomotile,slight,?,?,?,?,?,45,5.8,cloudy,1.4,lived,no
yes,adult,39.7,100,30,?,?,dark_cyanotic,>=3,intermittent_severe_pain,absent,moderate,none,?,?,absent,distended_large_intestine,65,75,?,?,euthanized,yes
yes,adult,39.9,72,60,normal,normal,bright_red,>=3,continuous_severe_pain,absent,severe,significant,none,?,absent,distended_small_intestine,46,6.1,cloudy,?,lived,yes
yes,adult,?,?,?,?,?,?,?,?,?,?,?,?,?,?,?,24,6.7,?,?,lived,yes
yes,adult,37.6,64,21,normal,normal,bright_pink,<3,depressed,hypomotile,none,none,none,?,increased,distended_large_intestine,40,7,clear,?,lived,yes
no,adult,38,52,16,?,?,?,?,depressed,?,?,?,<1l,1,normal,normal,53,86,?,?,lived,yes
yes,adult,37.5,60,50,cool,reduced,normal_pink,<3,intermittent_mild_pain,hypomotile,slight,slight,>1l,3.5,decreased,distended_small_intestine,35,6.5,?,?,died,yes
yes,adult,?,60,30,cool,reduced,pale_cyanotic,>=3,continuous_severe_pain,absent,severe,none,none,?,absent,?,45,70,serosanguinous,2,lived,yes
yes,adult,39,64,36,cool,normal,pale_cyanotic,>=3,intermittent_mild_pain,hypomotile,slight,none,>1l,7,absent,distended_large_intestine,44,7.5,serosanguinous,5,lived,yes
yes,adult,38,48,?,normal,normal,normal_pink,<3,alert_no_pain,normal,severe,slight,>1l,?,absent,distended_large_intestine,?,?,?,?,lived,yes
no,adult,38,48,20,cool,reduced,pale_cyanotic,<3,alert_no_pain,absent,slight,slight,?,5,?,other,49,8.3,clear,?,lived,no
yes,adult,38.5,96,30,warm,reduced,pale_cyanotic,>=3,intermittent_severe_pain,absent,moderate,slight,none,?,decreased,distended_large_intestine,50,65,?,?,lived,yes
no,adult,38.4,48,16,normal,?,normal_pink,<3,alert_no_pain,hypomotile,none,slight,<1l,5.5,absent,firm_feces_in_large_intestine,49,6.8,?,?,lived,no
no,adult,37.5,44,20,normal,normal,pale_pink,<3,?,hypermotile,none,?,?,?,normal,?,35,7.2,?,?,lived,no
no,adult,37,60,20,cool,?,?,<3,intermittent_mild_pain,?,moderate,slight,>1l,4.5,absent,distended_small_intestine,43,7.6,?,?,euthanized,yes
yes,adult,37.7,120,28,cool,reduced,pale_pink,<3,continuous_severe_pain,hypomotile,moderate,none,none,?,?,?,65,7,serosanguinous,?,died,yes
no,adult,38.6,48,20,cool,normal,normal_pink,<3,alert_no_pain,hypomotile,slight,slight,none,?,decreased,other,50,7.3,clear,?,lived,no
yes,adult,38.1,40,36,normal,increased,bright_pink,<3,depressed,normal,?,?,?,?,?,?,?,?,?,?,euthanized,yes
yes,adult,?,60,36,cool,normal,pale_pink,<3,intermittent_mild_pain,hypomotile,slight,none,none,?,decreased,distended_small_intestine,26,72,cloudy,1,lived,yes
yes,adult,38.1,70,22,?,normal,?,<3,continuous_severe_pain,hypomotile,?,?,?,?,?,distended_large_intestine,36,65,?,?,euthanized,yes
yes,adult,?,?,?,?,?,?,?,?,?,?,?,?,?,?,?,?,?,?,?,lived,yes
no,adult,39.5,?,?,cool,reduced,pale_cyanotic,>=3,intermittent_mild_pain,absent,moderate,?,<1l,5.5,absent,distended_large_intestine,?,6.7,clear,?,euthanized,yes
no,adult,38.3,60,20,normal,normal,normal_pink,>=3,alert_no_pain,hypomotile,none,?,?,?,decreased,?,34,66,?,?,lived,no
yes,adult,38.2,76,28,cool,normal,normal_pink,<3,intermittent_mild_pain,absent,none,slight,>1l,?,absent,distended_small_intestine,46,81,clear,2,lived,yes
yes,adult,37.8,40,12,normal,normal,normal_pink,<3,alert_no_pain,normal,none,slight,none,?,normal,other,38,7,?,?,lived,yes
yes,young,38.4,84,40,cool,reduced,bright_pink,<3,intermittent_mild_pain,hypomotile,moderate,none,none,?,?,?,36,6.6,cloudy,2.8,died,yes
yes,adult,37.8,88,22,warm,normal,bright_pink,<3,intermittent_mild_pain,?,?,slight,?,?,absent,?,64,8,clear,6,died,yes
no,adult,36,42,30,?,?,bright_red,<3,?,?,?,?,?,?,?,?,64,6.8,?,?,died,no
no,adult,38.5,54,20,?,normal,bright_pink,>=3,intermittent_mild_pain,absent,none,slight,>1l,5.9,?,other,42,6.3,?,?,lived,no
yes,adult,37.5,88,20,warm,reduced,pale_pink,<3,intermittent_severe_pain,hypomotile,moderate,?,?,?,?,?,35,6.4,clear,?,died,yes
no,adult,38.3,40,16,cool,?,normal_pink,<3,depressed,?,?,?,?,?,?,?,37,57,?,?,lived,no
no,adult,38.5,60,?,warm,increased,normal_pink,<3,alert_no_pain,normal,slight,slight,none,?,normal,normal,44,7.7,?,?,lived,no
no,adult,39.4,110,35,cold,reduced,dark_cyanotic,?,?,hypomotile,moderate,?,?,?,?,?,55,8.7,?,?,lived,no
yes,adult,39.3,64,90,warm,reduced,normal_pink,<3,?,hypomotile,none,none,>1l,?,?,?,39,6.7,?,?,lived,yes
yes,young,39.7,100,?,cool,reduced,bright_red,>=3,depressed,hypomotile,?,?,?,?,?,?,48,57,cloudy,2,euthanized,yes
no,adult,38.5,100,?,cool,reduced,bright_red,>=3,intermittent_severe_pain,hypomotile,severe,slight,none,?,absent,distended_large_intestine,?,?,?,?,euthanized,no
yes,adult,37,56,24,cool,normal,pale_cyanotic,>=3,intermittent_severe_pain,absent,moderate,none,none,?,?,?,35,61,serosanguinous,2,euthanized,no
yes,adult,38.2,48,?,normal,reduced,pale_pink,<3,intermittent_mild_pain,absent,severe,none,<1l,2,absent,distended_large_intestine,42,71,?,?,lived,yes
no,adult,38.7,52,20,warm,?,normal_pink,<3,alert_no_pain,hypermotile,none,none,none,?,normal,normal,33,77,?,?,lived,no
yes,adult,37.4,50,32,cool,reduced,?,<3,intermittent_severe_pain,absent,none,slight,none,?,normal,?,45,7.9,cloudy,1,lived,yes
yes,adult,37.8,60,80,normal,reduced,bright_pink,>=3,depressed,hypomotile,moderate,?,>1l,5.5,absent,?,40,4.5,cloudy,?,lived,yes
no,adult,38.5,60,40,cool,normal,bright_pink,<3,depressed,hypermotile,slight,?,?,?,decreased,other,49,59,?,?,lived,no
yes,adult,?,76,?,?,reduced,?,?,?,absent,severe,?,?,?,?,distended_large_intestine,?,?,?,?,euthanized,yes
yes,adult,38.1,88,32,cool,reduced,pale_cyanotic,<3,depressed,hypomotile,moderate,?,<1l,1,absent,distended_large_intestine,55,60,?,?,euthanized,no
yes,young,38.1,100,80,cool,normal,bright_pink,<3,intermittent_mild_pain,absent,none,?,?,?,normal,?,36,5.7,?,?,lived,yes
yes,young,38.3,130,60,?,reduced,?,<3,depressed,absent,?,?,?,?,?,?,50,70,?,?,lived,yes
yes,adult,?,?,?,cold,reduced,?,>=3,depressed,absent,none,?,?,?,?,?,54,76,serosanguinous,2,lived,yes
yes,adult,39.3,64,90,warm,reduced,normal_pink,<3,?,hypomotile,none,none,>1l,6.5,normal,distended_large_intestine,39,6.7,?,?,lived,yes
yes,adult,38.6,48,20,cool,normal,normal_pink,<3,intermittent_severe_pain,hypomotile,none,?,?,?,decreased,?,37,75,?,?,lived,yes
yes,adult,?,120,?,cool,absent,pale_cyanotic,<3,intermittent_severe_pain,absent,severe,none,none,?,?,distended_large_intestine,52,67,cloudy,2,euthanized,yes
yes,adult,38.5,104,40,cool,reduced,?,<3,intermittent_severe_pain,hypomotile,severe,?,?,?,?,?,?,?,?,?,lived,yes
no,adult,37.5,52,12,normal,normal,normal_pink,<3,depressed,hypomotile,slight,slight,none,?,decreased,distended_large_intestine,36,61,clear,1,lived,no
no,adult,37.9,88,24,normal,normal,bright_pink,<3,depressed,normal,none,?,?,?,absent,normal,37,56,?,?,lived,no
yes,adult,?,88,40,cool,reduced,pale_cyanotic,>=3,continuous_severe_pain,absent,moderate,significant,?,?,absent,distended_large_intestine,50,7.7,serosanguinous,1.4,died,yes
yes,adult,38.1,52,24,normal,normal,bright_red,<3,intermittent_severe_pain,hypomotile,none,slight,<1l,7,normal,?,54,7.5,cloudy,2.6,died,yes
yes,adult,?,60,?,cool,?,?,<3,?,absent,slight,slight,none,?,decreased,distended_small_intestine,44,8.3,?,?,died,yes
yes,adult,?,?,20,cold,reduced,pale_pink,?,continuous_severe_pain,absent,moderate,slight,?,?,absent,distended_small_intestine,53,5.9,serosanguinous,?,died,yes
no,young,38,92,28,normal,normal,bright_pink,<3,alert_no_pain,hypomotile,slight,significant,?,7.2,?,?,37,6.1,clear,1.1,lived,no
no,adult,36.6,42,18,cool,reduced,bright_pink,<3,alert_no_pain,absent,none,none,none,?,?,distended_large_intestine,52,7.1,?,?,died,yes
yes,adult,?,120,70,cold,?,pale_cyanotic,>=3,depressed,absent,?,?,?,?,?,distended_large_intestine,55,65,?,?,euthanized,no
no,adult,37.2,36,9,normal,normal,normal_pink,<3,depressed,hypomotile,none,slight,none,?,absent,normal,35,5.7,?,?,lived,no
no,adult,37.9,40,24,normal,normal,normal_pink,<3,depressed,hypomotile,none,?,?,?,?,firm_feces_in_large_intestine,40,5.7,?,?,lived,yes
no,adult,37.5,48,24,?,?,?,?,?,?,?,?,?,?,?,?,?,?,?,?,lived,no
no,adult,38.6,60,30,normal,normal,pale_pink,<3,intermittent_severe_pain,normal,slight,none,none,?,?,?,40,6,clear,?,lived,yes
no,adult,38.2,130,16,cold,reduced,pale_cyanotic,>=3,depressed,absent,severe,none,none,?,?,?,65,82,cloudy,2,euthanized,no
yes,adult,38.3,80,40,?,?,dark_cyanotic,>=3,intermittent_severe_pain,hypomotile,none,?,>1l,?,normal,distended_small_intestine,67,10.2,cloudy,1,euthanized,yes
no,adult,38.8,50,20,cool,normal,normal_pink,<3,alert_no_pain,hypermotile,none,slight,none,?,decreased,normal,42,6.2,?,?,lived,no
yes,adult,?,68,14,?,?,pale_cyanotic,<3,intermittent_severe_pain,?,?,?,none,4.3,?,?,?,?,cloudy,2.8,died,yes
yes,adult,39.2,120,20,cold,reduced,bright_red,>=3,depressed,hypomotile,moderate,none,<1l,?,?,distended_small_intestine,60,8.8,serosanguinous,?,died,yes
no,young,38,92,28,normal,normal,bright_pink,<3,alert_no_pain,hypomotile,slight,significant,?,7.2,normal,normal,37,6.1,clear,?,died,no
yes,adult,38.3,42,24,?,?,?,<3,?,?,?,?,?,?,?,?,40,8.5,?,?,died,yes
yes,adult,38.5,92,40,cold,reduced,?,<3,depressed,absent,moderate,?,?,?,absent,?,46,67,cloudy,2,lived,yes
no,adult,38.6,68,20,warm,normal,pale_pink,<3,intermittent_mild_pain,hypomotile,slight,none,none,?,normal,distended_large_intestine,38,6.5,clear,?,lived,no
yes,adult,37.7,80,?,cool,reduced,dark_cyanotic,<3,continuous_severe_pain,absent,none,slight,<1l,?,decreased,normal,50,55,serosanguinous,2,lived,yes
yes,adult,39.2,?,23,cool,normal,pale_pink,<3,intermittent_severe_pain,absent,slight,slight,?,?,?,?,36,6.6,clear,3,lived,yes
yes,adult,38.6,42,34,warm,normal,pale_cyanotic,?,depressed,hypomotile,none,?,?,?,normal,?,48,7.2,?,?,lived,yes
yes,adult,37.8,60,24,normal,?,pale_pink,>=3,?,absent,severe,slight,<1l,2,?,distended_large_intestine,52,75,?,?,euthanized,yes
yes,young,38.8,124,36,cool,normal,bright_pink,<3,depressed,hypomotile,severe,none,none,?,absent,distended_small_intestine,50,7.6,serosanguinous,?,died,yes
yes,adult,37.5,48,40,?,?,?,?,?,?,?,none,none,?,?,distended_large_intestine,41,55,serosanguinous,2,euthanized,yes
yes,adult,?,70,36,normal,?,pale_pink,>=3,depressed,hypomotile,slight,slight,?,?,absent,distended_large_intestine,36,7.3,?,?,lived,yes
no,adult,38,42,12,cool,?,pale_pink,<3,alert_no_pain,?,none,?,?,?,?,other,37,5.8,?,?,lived,no
?,adult,38,65,40,?,normal,pale_cyanotic,>=3,depressed,?,?,?,?,?,?,distended_large_intestine,?,?,?,?,?,yes
yes,adult,38.3,60,16,cool,normal,normal_pink,<3,depressed,hypermotile,none,slight,>1l,3,normal,distended_small_intestine,30,6,clear,3,lived,yes
no,adult,37.2,84,48,cool,reduced,bright_red,>=3,intermittent_severe_pain,hypermotile,slight,none,>1l,?,increased,normal,73,5.5,cloudy,4.1,died,no
?,adult,38,48,20,cool,normal,pale_pink,<3,intermittent_severe_pain,hypomotile,none,slight,none,?,decreased,distended_large_intestine,43,73,cloudy,1,?,yes
yes,adult,?,112,13,cold,absent,pale_cyanotic,<3,depressed,hypomotile,none,slight,none,4.5,absent,distended_small_intestine,60,6.3,serosanguinous,?,lived,yes
yes,adult,36.6,48,16,cool,normal,pale_pink,<3,intermittent_severe_pain,hypermotile,none,none,none,?,?,?,27,56,?,?,euthanized,yes
yes,adult,37.1,84,40,cool,reduced,dark_cyanotic,<3,depressed,absent,severe,significant,>1l,2,absent,distended_large_intestine,75,81,?,?,euthanized,no
yes,adult,36.5,100,24,cool,reduced,pale_pink,<3,intermittent_mild_pain,hypomotile,moderate,significant,none,?,absent,distended_small_intestine,50,6,serosanguinous,3.4,lived,yes
yes,adult,?,65,24,?,?,?,>=3,continuous_severe_pain,?,severe,significant,none,?,?,distended_large_intestine,?,?,?,?,euthanized,yes
no,adult,38,54,30,warm,reduced,pale_pink,meaning_unknown,intermittent_mild_pain,hypermotile,slight,slight,>1l,?,?,distended_small_intestine,45,6.2,?,?,lived,no
yes,young,38,140,68,normal,normal,normal_pink,<3,intermittent_mild_pain,hypomotile,slight,?,?,?,increased,normal,39,5.3,?,?,lived,yes
yes,adult,39.2,88,20,?,?,pale_cyanotic,<3,intermittent_mild_pain,absent,slight,?,?,?,absent,other,50,85,cloudy,2,euthanized,no
no,adult,36.9,50,40,warm,reduced,pale_pink,<3,alert_no_pain,hypomotile,slight,significant,none,7,?,?,37.5,6.5,?,?,lived,no
no,adult,39.6,108,51,cool,reduced,dark_cyanotic,>=3,depressed,absent,moderate,none,>1l,?,decreased,distended_large_intestine,59,8,cloudy,2.6,lived,no
no,young,?,100,44,warm,normal,normal_pink,<3,intermittent_severe_pain,hypermotile,none,?,?,?,normal,?,37,4.7,?,?,lived,no
yes,adult,?,36,12,normal,normal,normal_pink,<3,alert_no_pain,normal,none,none,none,?,normal,distended_large_intestine,44,?,?,?,lived,yes
yes,adult,?,120,?,cold,reduced,dark_cyanotic,>=3,continuous_severe_pain,absent,severe,?,?,?,absent,distended_large_intestine,57,4.5,serosanguinous,3.9,died,yes
yes,adult,?,60,48,cool,reduced,pale_cyanotic,>=3,intermittent_severe_pain,hypomotile,severe,?,?,?,?,?,58,7.6,?,?,died,yes
yes,adult,37.7,56,?,?,?,?,?,?,?,?,?,?,?,?,?,?,?,?,?,died,yes
yes,adult,38.2,52,16,normal,normal,bright_pink,<3,alert_no_pain,normal,none,none,none,?,normal,?,43,8.1,?,?,lived,no
yes,adult,38.8,50,14,normal,normal,normal_pink,<3,intermittent_mild_pain,hypermotile,none,none,none,?,decreased,distended_large_intestine,38,58,?,?,lived,yes
yes,young,?,?,?,?,?,?,?,?,?,?,?,?,?,?,?,37,4.9,?,?,died,yes
no,adult,38.2,56,40,cold,reduced,normal_pink,<3,depressed,absent,moderate,slight,>1l,7.5,?,?,47,7.2,clear,2.5,lived,no
no,adult,36.1,88,?,cool,reduced,pale_pink,<3,intermittent_mild_pain,hypomotile,slight,slight,<1l,?,?,distended_small_intestine,45,7,serosanguinous,4.8,euthanized,yes
yes,adult,38.1,66,12,cool,reduced,bright_red,<3,intermittent_mild_pain,hypomotile,none,slight,none,3,increased,distended_large_intestine,44,6,cloudy,3.6,lived,yes
yes,young,?,128,36,cool,reduced,pale_cyanotic,>=3,intermittent_severe_pain,absent,moderate,significant,?,?,absent,distended_large_intestine,53,7.8,serosanguinous,4.7,died,no
no,adult,?,84,36,?,?,pale_pink,<3,?,hypomotile,none,slight,none,?,decreased,other,44,8.5,?,?,lived,yes
yes,adult,37.6,40,?,normal,normal,normal_pink,<3,alert_no_pain,hypermotile,none,?,?,?,normal,normal,?,?,cloudy,2.1,lived,yes
yes,adult,38,90,30,cold,reduced,pale_cyanotic,>=3,continuous_severe_pain,absent,severe,?,?,?,absent,distended_large_intestine,55,6.1,?,?,died,yes
no,adult,?,120,?,cold,reduced,pale_cyanotic,>=3,continuous_severe_pain,absent,severe,none,none,?,absent,distended_large_intestine,60,6.5,serosanguinous,?,died,yes
yes,adult,38.3,52,96,?,reduced,pale_pink,<3,?,?,?,none,none,?,normal,?,43,6.1,?,?,lived,yes
no,adult,38,40,25,?,normal,normal_pink,<3,intermittent_severe_pain,hypomotile,slight,none,none,?,absent,?,37,69,?,?,lived,no
yes,adult,38.1,44,9,cool,normal,normal_pink,<3,depressed,normal,none,none,none,?,absent,distended_large_intestine,31,7.3,?,?,lived,no
no,adult,?,104,24,cold,reduced,pale_pink,>=3,intermittent_severe_pain,absent,moderate,?,<1l,?,?,other,73,8.4,?,?,euthanized,yes
yes,adult,?,100,?,cool,reduced,pale_cyanotic,>=3,?,absent,severe,slight,none,2,?,?,68,64,serosanguinous,2,lived,yes
yes,adult,38,108,60,warm,reduced,pale_cyanotic,<3,intermittent_severe_pain,hypomotile,moderate,slight,?,?,decreased,distended_small_intestine,?,?,serosanguinous,?,lived,yes
yes,adult,39.3,?,?,cold,reduced,dark_cyanotic,>=3,intermittent_severe_pain,absent,slight,none,<1l,4,absent,distended_small_intestine,75,?,serosanguinous,4.3,died,yes
no,adult,?,?,?,normal,normal,pale_pink,<3,alert_no_pain,hypomotile,none,?,?,?,increased,other,43,7.7,?,?,lived,no
no,adult,?,112,24,cool,reduced,pale_cyanotic,>=3,continuous_severe_pain,absent,slight,?,?,?,absent,?,40,5.3,serosanguinous,2.6,lived,no
no,adult,38.1,44,40,warm,normal,pale_pink,<3,intermittent_mild_pain,hypomotile,none,?,?,?,normal,firm_feces_in_large_intestine,35,6.8,?,?,lived,no
yes,adult,?,100,?,cool,?,pale_cyanotic,>=3,continuous_severe_pain,absent,?,slight,?,?,increased,?,59,6.3,?,?,died,yes
no,adult,37.2,108,12,cool,reduced,pale_cyanotic,>=3,depressed,absent,slight,?,<1l,6,decreased,firm_feces_in_large_intestine,52,8.2,serosanguinous,7.4,euthanized,yes
yes,adult,37.5,72,30,cold,reduced,pale_cyanotic,<3,intermittent_severe_pain,absent,moderate,slight,none,?,decreased,distended_large_intestine,60,6.8,?,?,died,yes
no,adult,37.8,82,12,cool,normal,normal_pink,>=3,intermittent_severe_pain,?,moderate,none,<1l,?,?,?,50,7,?,?,euthanized,yes
no,adult,38.3,45,20,cool,reduced,bright_pink,>=3,depressed,absent,none,slight,?,?,absent,?,?,?,?,?,lived,no
no,adult,37.8,60,42,?,?,?,<3,?,?,?,?,?,?,?,?,?,?,?,?,lived,no
yes,adult,37.6,38,20,cool,reduced,normal_pink,<3,intermittent_mild_pain,hypomotile,slight,?,?,?,decreased,?,37,68,?,?,lived,yes
yes,adult,39.2,88,58,cold,absent,?,>=3,continuous_severe_pain,absent,?,?,?,?,?,?,?,?,cloudy,2,euthanized,no
no,adult,38.8,48,40,normal,normal,pale_pink,<3,intermittent_mild_pain,hypomotile,severe,slight,?,?,?,distended_large_intestine,41,65,?,?,lived,yes
yes,young,38.6,160,20,cool,?,bright_red,<3,intermittent_mild_pain,hypomotile,severe,significant,?,?,absent,?,38,?,cloudy,?,died,yes
yes,adult,38,36,16,cool,normal,normal_pink,<3,intermittent_severe_pain,normal,slight,significant,<1l,2,decreased,?,37,75,cloudy,1,euthanized,no
yes,adult,37.6,45,12,cool,normal,pale_pink,<3,?,normal,slight,slight,none,?,normal,distended_small_intestine,39,7,cloudy,1.5,lived,yes
yes,adult,?,75,12,normal,normal,pale_cyanotic,<3,continuous_severe_pain,hypomotile,moderate,?,<1l,5.8,?,?,58,8.5,clear,?,lived,yes
no,adult,37.9,72,?,normal,normal,bright_red,>=3,intermittent_mild_pain,hypomotile,none,none,<1l,2,decreased,distended_small_intestine,58,74,clear,2,lived,yes
yes,adult,37.2,40,20,?,?,?,?,?,?,?,?,?,?,absent,normal,36,62,clear,1,euthanized,no
yes,young,?,?,?,?,?,?,?,?,?,?,?,?,?,?,?,45,6.5,cloudy,?,lived,yes
yes,adult,38.2,64,24,normal,normal,pale_pink,<3,intermittent_severe_pain,absent,moderate,slight,none,?,absent,distended_small_intestine,45,7.5,clear,2,died,yes
